Optimal Project Prioritization
…
# extract project, action, feature data
projects <- sim_data$projects
actions <- sim_data$actions
features <- sim_data$features

# manually set feature weights for teaching purposes
features$weight <- exp(runif(nrow(features), 1, 15))

# print data
print(projects) # data for conservation projects

# # A tibble: 71 × 73
#    name     success     F1    F2    F3     F4     F5     F6     F7     F8     F9
#    <chr>      <dbl>  <dbl> <dbl> <dbl>  <dbl>  <dbl>  <dbl>  <dbl>  <dbl>  <dbl>
#  1 project…   0.720  0.672    NA    NA NA      0.704 NA     NA      0.523 NA    
#  2 project…   0.859  0.514    NA    NA  0.832  0.616 NA     NA      0.547  0.687
#  3 project…   0.724 NA        NA    NA  0.812 NA     NA     NA     NA      0.627
#  4 project…   0.768  0.505    NA    NA NA     NA      0.530  0.708 NA     NA    
#  5 project…   0.856  0.539    NA    NA NA     NA      0.844  0.608  0.590 NA    
#  6 project…   0.891 NA        NA    NA NA     NA      0.563 NA     NA     NA    
#  7 project…   0.874  0.546    NA    NA NA      0.682  0.576  0.676  0.737 NA    
#  8 project…   0.932  0.593    NA    NA NA     NA      0.803  0.580  0.666 NA    
#  9 project…   0.900 NA        NA    NA  0.572  0.547 NA     NA     NA     NA    
# 10 project…   0.952 NA        NA    NA NA     NA     NA     NA     NA     NA    
# # ℹ 61 more rows
# # ℹ 62 more variables: F10 <dbl>, F11 <dbl>, F12 <dbl>, F13 <dbl>, F14 <dbl>,
# #   F15 <dbl>, F16 <dbl>, F17 <dbl>, F18 <dbl>, F19 <dbl>, F20 <dbl>,
# #   F21 <dbl>, F22 <dbl>, F23 <dbl>, F24 <dbl>, F25 <dbl>, F26 <dbl>,
# #   F27 <dbl>, F28 <dbl>, F29 <dbl>, F30 <dbl>, F31 <dbl>, F32 <dbl>,
# #   F33 <dbl>, F34 <dbl>, F35 <dbl>, F36 <dbl>, F37 <dbl>, F38 <dbl>,
# #   F39 <dbl>, F40 <dbl>, action_1 <lgl>, action_2 <lgl>, action_3 <lgl>, …

print(actions) # data for management actions

# # A tibble: 31 × 4
#    name       cost locked_in locked_out
#    <chr>     <dbl> <lgl>     <lgl>     
#  1 action_1   97.8 FALSE     FALSE     
#  2 action_2   94.0 FALSE     FALSE     
#  3 action_3  100.  FALSE     FALSE     
#  4 action_4  103.  FALSE     FALSE     
#  5 action_5   96.1 FALSE     FALSE     
#  6 action_6   98.1 FALSE     FALSE     
#  7 action_7   97.6 FALSE     FALSE     
#  8 action_8  104.  FALSE     FALSE     
#  9 action_9   99.9 FALSE     FALSE     
# 10 action_10  93.1 FALSE     FALSE     
# # ℹ 21 more rows

print(features) # data for biodiversity features

# # A tibble: 40 × 2
#    name     weight
#    <chr>     <dbl>
#  1 F1       210.  
#  2 F2         7.64
#  3 F3         7.99
#  4 F4      7732.  
#  5 F5     34905.  
#  6 F6         3.31
#  7 F7      1168.  
#  8 F8    108301.  
#  9 F9         3.62
# 10 F10     6956.  
# # ℹ 30 more rows
…
Since the text printed to the screen doesn’t show which projects were
completely funded, let’s extract this information from the table.

# extract names of funded projects
s1_projects <- s1[, c("solution", p1$project_names())] %>%
  gather(project, status, -solution)

# print project results
print(s1_projects)

# # A tibble: 71 × 3
#    solution project    status
#       <int> <chr>      <lgl> 
#  1        1 project_1  FALSE 
#  2        1 project_2  FALSE 
#  3        1 project_3  FALSE 
#  4        1 project_4  FALSE 
#  5        1 project_5  FALSE 
#  6        1 project_6  FALSE 
#  7        1 project_7  FALSE 
#  8        1 project_8  FALSE 
#  9        1 project_9  FALSE 
# 10        1 project_10 FALSE 
# # ℹ 61 more rows
# print names of completely funded projects
s1_projects$project[s1_projects$status > 0]

# [1] "project_20" "project_23" "project_28" "project_48" "project_69"

We could also calculate cost-effectiveness measures for each of the
conservation projects.

# calculate cost-effectiveness of each project
p1_pce <- project_cost_effectiveness(p1)

# print output
print(p1_pce)

# # A tibble: 71 × 6
#    project     cost   obj benefit      ce  rank
#    <chr>      <dbl> <dbl>   <dbl>   <dbl> <dbl>
#  1 project_1   992.  15.4    4.65 0.00469  63  
#  2 project_2  2299.  31.1   20.3  0.00885  27  
#  3 project_3   578.  15.1    4.35 0.00753  57  
#  4 project_4  1482.  23.5   12.7  0.00859  31  
#  5 project_5  2292.  30.2   19.5  0.00850  33  
#  6 project_6  1296.  12.6    1.85 0.00142  69  
#  7 project_7   785.  15.3    4.52 0.00576  61  
#  8 project_8  2761.  33.1   22.3  0.00809  44  
#  9 project_9  1786.  15.7    4.95 0.00277  65  
# 10 project_10 2977.  34.7   24.0  0.00806  46.5
# # ℹ 61 more rows
…
Overall, we can see that most species have a fairly decent chance at
persisting into the future (approx. 77%). But when making this
prioritization, we assumed that we valued the persistence of each
feature equally. It is often important to account for the fact that
certain features are valued more highly than other features when making
prioritizations (e.g. for cultural or taxonomic reasons). The
features table that we created earlier contains a
"weight" column, and features with larger values mean that
they are more important. Let’s quickly visualize the feature weight
values.

# print features table
print(features)

# # A tibble: 40 × 2
#    name     weight
#    <chr>     <dbl>
#  1 F1       210.  
#  2 F2         7.64
#  3 F3         7.99
#  4 F4      7732.  
#  5 F5     34905.  
#  6 F6         3.31
#  7 F7      1168.  
#  8 F8    108301.  
#  9 F9         3.62
# 10 F10     6956.  
# # ℹ 30 more rows
…
# create new problem, with Gurobi solver added and request multiple solutions
# note that we set the gap to 0.5 because we are not necessarily interested
# in the top 1,000 solutions (for more information on why read the Gurobi
# documentation on solution pools)
p3 <- p2 %>%
  add_gurobi_solver(gap = 0.5, number_solution = 1000)

# solve problem
s3 <- solve(p3)

# print solution
print(s3)

# # A tibble: 49 × 146
#    solution status   cost      obj action_1 action_2 action_3 action_4 action_5
#       <int> <chr>   <dbl>    <dbl> <lgl>    <lgl>    <lgl>    <lgl>    <lgl>   
#  1        1 OPTIMAL  874. 6290606. FALSE    TRUE     TRUE     FALSE    FALSE   
#  2        2 OPTIMAL  980. 6290606. FALSE    TRUE     TRUE     FALSE    FALSE   
#  3        3 OPTIMAL  967. 6290606. FALSE    TRUE     TRUE     FALSE    FALSE   
#  4        4 OPTIMAL  977. 6290606. FALSE    TRUE     TRUE     FALSE    FALSE   
#  5        5 OPTIMAL  971. 6290606. FALSE    TRUE     TRUE     FALSE    FALSE   
#  6        6 OPTIMAL  977. 6290606. FALSE    TRUE     TRUE     FALSE    FALSE   
#  7        7 OPTIMAL  977. 6290606. FALSE    TRUE     TRUE     TRUE     FALSE   
#  8        8 OPTIMAL  974. 6290606. FALSE    TRUE     TRUE     FALSE    FALSE   
#  9        9 OPTIMAL  970. 6290606. FALSE    TRUE     TRUE     FALSE    TRUE    
# 10       10 OPTIMAL  969. 6290606. FALSE    TRUE     TRUE     FALSE    FALSE   
# # ℹ 39 more rows
# # ℹ 137 more variables: action_6 <lgl>, action_7 <lgl>, action_8 <lgl>,
# #   action_9 <lgl>, action_10 <lgl>, action_11 <lgl>, action_12 <lgl>,
# #   action_13 <lgl>, action_14 <lgl>, action_15 <lgl>, action_16 <lgl>,
# #   action_17 <lgl>, action_18 <lgl>, action_19 <lgl>, action_20 <lgl>,
# #   action_21 <lgl>, action_22 <lgl>, action_23 <lgl>, action_24 <lgl>,
# #   action_25 <lgl>, action_26 <lgl>, action_27 <lgl>, action_28 <lgl>, …
…
# print the solution object to remind ourselves what it looks like
print(s3)

# # A tibble: 49 × 146
#    solution status   cost      obj action_1 action_2 action_3 action_4 action_5
#       <int> <chr>   <dbl>    <dbl> <lgl>    <lgl>    <lgl>    <lgl>    <lgl>   
#  1        1 OPTIMAL  874. 6290606. FALSE    TRUE     TRUE     FALSE    FALSE   
#  2        2 OPTIMAL  980. 6290606. FALSE    TRUE     TRUE     FALSE    FALSE   
#  3        3 OPTIMAL  967. 6290606. FALSE    TRUE     TRUE     FALSE    FALSE   
#  4        4 OPTIMAL  977. 6290606. FALSE    TRUE     TRUE     FALSE    FALSE   
#  5        5 OPTIMAL  971. 6290606. FALSE    TRUE     TRUE     FALSE    FALSE   
#  6        6 OPTIMAL  977. 6290606. FALSE    TRUE     TRUE     FALSE    FALSE   
#  7        7 OPTIMAL  977. 6290606. FALSE    TRUE     TRUE     TRUE     FALSE   
#  8        8 OPTIMAL  974. 6290606. FALSE    TRUE     TRUE     FALSE    FALSE   
#  9        9 OPTIMAL  970. 6290606. FALSE    TRUE     TRUE     FALSE    TRUE    
# 10       10 OPTIMAL  969. 6290606. FALSE    TRUE     TRUE     FALSE    FALSE   
# # ℹ 39 more rows
# # ℹ 137 more variables: action_6 <lgl>, action_7 <lgl>, action_8 <lgl>,
# #   action_9 <lgl>, action_10 <lgl>, action_11 <lgl>, action_12 <lgl>,
# #   action_13 <lgl>, action_14 <lgl>, action_15 <lgl>, action_16 <lgl>,
# #   action_17 <lgl>, action_18 <lgl>, action_19 <lgl>, action_20 <lgl>,
# #   action_21 <lgl>, action_22 <lgl>, action_23 <lgl>, action_24 <lgl>,
# #   action_25 <lgl>, action_26 <lgl>, action_27 <lgl>, action_28 <lgl>, …

# calculate percentage of times each action was selected for
# funding in the solutions
actions$sel_freq <- apply(as.matrix(s3[, actions$name]), 2, mean) * 100

# print the actions table with the new column
print(actions)

# # A tibble: 31 × 5
#    name       cost locked_in locked_out sel_freq
#    <chr>     <dbl> <lgl>     <lgl>         <dbl>
#  1 action_1   97.8 FALSE     FALSE         14.3 
#  2 action_2   94.0 FALSE     FALSE         49.0 
#  3 action_3  100.  FALSE     FALSE         81.6 
#  4 action_4  103.  FALSE     FALSE         28.6 
#  5 action_5   96.1 FALSE     FALSE          4.08
#  6 action_6   98.1 FALSE     FALSE          0   
#  7 action_7   97.6 FALSE     FALSE         18.4 
#  8 action_8  104.  FALSE     FALSE         10.2 
#  9 action_9   99.9 FALSE     FALSE          8.16
# 10 action_10  93.1 FALSE     FALSE         32.7 
# # ℹ 21 more rows
…
# calculate replacement costs for each priority action selected in s2
r2 <- replacement_costs(p2, s2)

# print output
print(r2)

# # A tibble: 31 × 4
#    name       cost      obj rep_cost
#    <chr>     <dbl>    <dbl>    <dbl>
#  1 action_1    NA       NA       NA 
#  2 action_2   988. 6102909.  187698.
#  3 action_3   993. 6122986.  167620.
#  4 action_4    NA       NA       NA 
#  5 action_5    NA       NA       NA 
#  6 action_6    NA       NA       NA 
#  7 action_7    NA       NA       NA 
#  8 action_8   980. 6290606.       0 
#  9 action_9    NA       NA       NA 
# 10 action_10   NA       NA       NA 
# # ℹ 21 more rows
…
# add replacement costs to action table
actions$rep_cost <- r2$rep_cost

# print actions, ordered by replacement cost
print(actions[order(actions$rep_cost, decreasing = TRUE), ])

# # A tibble: 31 × 6
#    name             cost locked_in locked_out sel_freq rep_cost
#    <chr>           <dbl> <lgl>     <lgl>         <dbl>    <dbl>
#  1 action_14        99.4 FALSE     FALSE          95.9  345636.
#  2 action_2         94.0 FALSE     FALSE          49.0  187698.
#  3 action_22        93.9 FALSE     FALSE          44.9  187698.
#  4 action_3        100.  FALSE     FALSE          81.6  167620.
#  5 action_17       101.  FALSE     FALSE          81.6  167620.
#  6 action_19        89.8 FALSE     FALSE          85.7  167620.
#  7 action_27        91.1 FALSE     FALSE          95.9  167620.
#  8 action_28       102.  FALSE     FALSE         100    167620.
#  9 action_29       103.  FALSE     FALSE          83.7  167620.
# 10 baseline_action   0   FALSE     FALSE          95.9  167620.
# # ℹ 21 more rows
…
# print solutions
print(s7)

# # A tibble: 100 × 147
#    solution status  cost      obj action_1 action_2 action_3 action_4 action_5
#       <int> <chr>  <dbl>    <dbl> <lgl>    <lgl>    <lgl>    <lgl>    <lgl>   
#  1        1 NA       0   2284593. FALSE    FALSE    FALSE    FALSE    FALSE   
#  2        1 NA       0   2284593. FALSE    FALSE    FALSE    FALSE    FALSE   
#  3        1 NA       0   2284593. FALSE    FALSE    FALSE    FALSE    FALSE   
#  4        1 NA       0   2284593. FALSE    FALSE    FALSE    FALSE    FALSE   
#  5        1 NA      99.4 4513353. FALSE    FALSE    FALSE    FALSE    FALSE   
#  6        1 NA      99.4 4513353. FALSE    FALSE    FALSE    FALSE    FALSE   
#  7        1 NA      99.4 4513353. FALSE    FALSE    FALSE    FALSE    FALSE   
#  8        1 NA      99.4 4513353. FALSE    FALSE    FALSE    FALSE    FALSE   
#  9        1 NA      99.4 4513353. FALSE    FALSE    FALSE    FALSE    FALSE   
# 10        1 NA      99.4 4513353. FALSE    FALSE    FALSE    FALSE    FALSE   
# # ℹ 90 more rows
# # ℹ 138 more variables: action_6 <lgl>, action_7 <lgl>, action_8 <lgl>,
# #   action_9 <lgl>, action_10 <lgl>, action_11 <lgl>, action_12 <lgl>,
# #   action_13 <lgl>, action_14 <lgl>, action_15 <lgl>, action_16 <lgl>,
# #   action_17 <lgl>, action_18 <lgl>, action_19 <lgl>, action_20 <lgl>,
# #   action_21 <lgl>, action_22 <lgl>, action_23 <lgl>, action_24 <lgl>,
# #   action_25 <lgl>, action_26 <lgl>, action_27 <lgl>, action_28 <lgl>, …
…
# print solutions
print(s8)

# # A tibble: 100 × 3
#    budget  min_obj  max_obj
#     <dbl>    <dbl>    <dbl>
#  1    0   2284593. 2284593.
#  2   30.1 2284593. 2284593.
#  3   60.1 2284593. 2284593.
#  4   90.2 2284593. 2284593.
#  5  120.  4513353. 4513353.
#  6  150.  4513353. 4513353.
#  7  180.  4513353. 4513353.
#  8  211.  2284651. 4513353.
#  9  241.  2284651. 4513353.
# 10  271.  2284651. 4513353.
# # ℹ 90 more rows
…
# print solutions
print(s9)

# # A tibble: 100 × 147
#    solution status   cost      obj action_1 action_2 action_3 action_4 action_5
#       <int> <chr>   <dbl>    <dbl> <lgl>    <lgl>    <lgl>    <lgl>    <lgl>   
#  1        1 OPTIMAL   0   2284593. FALSE    FALSE    FALSE    FALSE    FALSE   
#  2        1 OPTIMAL   0   2284593. FALSE    FALSE    FALSE    FALSE    FALSE   
#  3        1 OPTIMAL   0   2284593. FALSE    FALSE    FALSE    FALSE    FALSE   
#  4        1 OPTIMAL   0   2284593. FALSE    FALSE    FALSE    FALSE    FALSE   
#  5        1 OPTIMAL  99.4 4513353. FALSE    FALSE    FALSE    FALSE    FALSE   
#  6        1 OPTIMAL  99.4 4513353. FALSE    FALSE    FALSE    FALSE    FALSE   
#  7        1 OPTIMAL  99.4 4513353. FALSE    FALSE    FALSE    FALSE    FALSE   
#  8        1 OPTIMAL  99.4 4513353. FALSE    FALSE    FALSE    FALSE    FALSE   
#  9        1 OPTIMAL  99.4 4513353. FALSE    FALSE    FALSE    FALSE    FALSE   
# 10        1 OPTIMAL  99.4 4513353. FALSE    FALSE    FALSE    FALSE    FALSE   
# # ℹ 90 more rows
# # ℹ 138 more variables: action_6 <lgl>, action_7 <lgl>, action_8 <lgl>,
# #   action_9 <lgl>, action_10 <lgl>, action_11 <lgl>, action_12 <lgl>,
# #   action_13 <lgl>, action_14 <lgl>, action_15 <lgl>, action_16 <lgl>,
# #   action_17 <lgl>, action_18 <lgl>, action_19 <lgl>, action_20 <lgl>,
# #   action_21 <lgl>, action_22 <lgl>, action_23 <lgl>, action_24 <lgl>,
# #   action_25 <lgl>, action_26 <lgl>, action_27 <lgl>, action_28 <lgl>, …
…
